<svg width="40" height="40" viewBox="0 0 40 40" fill="none" xmlns="http://www.w3.org/2000/svg">
<path d="M30.7833 28.05L31.4333 33.3166C31.5999 34.7 30.1166 35.6666 28.9333 34.95L23.1666 31.5166C22.7666 31.2833 22.6666 30.7833 22.8833 30.3833C23.7166 28.85 24.1666 27.1166 24.1666 25.3833C24.1666 19.2833 18.9333 14.3166 12.4999 14.3166C11.1833 14.3166 9.89994 14.5166 8.69994 14.9166C8.08328 15.1166 7.48328 14.55 7.63328 13.9166C9.14995 7.84998 14.9833 3.33331 21.9499 3.33331C30.0833 3.33331 36.6666 9.48331 36.6666 17.0666C36.6666 21.5666 34.3499 25.55 30.7833 28.05Z" fill="#A9FF36"/>
<path d="M21.6667 25.3833C21.6667 27.3666 20.9334 29.2 19.7 30.65C18.05 32.65 15.4334 33.9333 12.5 33.9333L8.15004 36.5166C7.41671 36.9667 6.48337 36.35 6.58337 35.5L7.00004 32.2167C4.76671 30.6666 3.33337 28.1833 3.33337 25.3833C3.33337 22.45 4.90004 19.8667 7.30004 18.3333C8.78337 17.3667 10.5667 16.8167 12.5 16.8167C17.5667 16.8167 21.6667 20.65 21.6667 25.3833Z" fill="#A9FF36"/>
</svg>
