// Jest Snapshot v1, https://goo.gl/fbAQLP

exports[`renders homepage unchanged 1`] = `
<div>
  <div
    class="absolute w-fit top-1/2 -translate-x-1/2 left-1/2 -translate-y-1/2"
  >
    <h1
      class="w-fit text-lg font-semibold opacity-80"
    >
      Hãy chọn một đoạn chat bất kỳ để bắt đầu cuộc trò chuyện
    </h1>
  </div>
</div>
`;
